[
  {
    "id": "M_9_1",
    "key": {
      "en": "M.9-1",
      "de": "M.9-1"
    },
    "title": {
      "en": "OAI Specification",
      "de": "OAI-Spezifikation"
    },
    "description": {
      "en": "<p>The OAI interface complies with protocol specification version 2.0.</p>",
      "de": "<p>Die OAI-Schnittstelle verhält sich konform zur Protokollspezifikation in der Version 2.0.</p>"
    },
    "validation": "verb=Identify, field=protocolVersion\ncontent=2.0",
    "example": "<Identify>\n    <protocolVersion>2.0<\/protocolVersion>",
    "weight": 4
  },
  {
    "id": "M_9_2",
    "key": {
      "en": "M.9-2",
      "de": "M.9-2"
    },
    "title": {
      "en": "Performance and Persistence",
      "de": "Performanz und Persistenz"
    },
    "description": {
      "en": "<p>The OAI interface is persistently available under the registered base URL and delivers sufficient performance.</p><ul><li> This is a prerequisite for reliable use of the interface by the service providers, and it ensures the minimization of communication problems, specifically aborted harvesting processes.</li></ul>",
      "de": "<p>Die OAI-Schnittstelle ist dauerhaft unter der registrierten Basis-URL erreichbar und verfügt über eine ausreichende Performanz.</p><ul><li> Dies ist für die zuverlässige Nutzung der Schnittstelle durch Service Provider unerlässlich und sorgt unter anderem dafür, dass Kommunikationsprobleme – insbesondere vorzeitig abgebrochene Harvesting-Vorgänge – minimiert werden.</li></ul>"
    },
    "manual": true,
    "validation": "",
    "example": "",
    "weight": 0
  },
  {
    "id": "M_9_3",
    "key": {
      "en": "M.9-3",
      "de": "M.9-3"
    },
    "title": {
      "en": "XML Schema Conformity",
      "de": "XML-Schema-Konformität"
    },
    "description": {
      "en": "<p>All replies by the OAI interface are well formed in the XML sense and valid with regard to the XML schema defined in the OAI specification and other XML schemata used for metadata formats.</p><ul><li>This requires a uniform and valid character coding for the entire OAI interface (and all datasets).</li><li>Difficulties arise regularly with error messages in the XML stream sent by databases or applications.</li><li>Even XML-valid error messages can disrupt the incremental harvesting and should be avoided.</li></ul>",
      "de": "<p>Alle durch die OAI-Schnittstelle ausgelieferten Antworten sind im Sinne von XML wohlgeformt und hinsichtlich des in der OAI-Spezifikation angegebenen XML-Schemas und weiterer verwendeter XML-Schemata für die Metadatenformate gültig.</p><ul><li>Dies setzt voraus, dass das Zeichenencoding für die ganze OAI-Schnittstelle (und alle Datensätze) einheitlich und valide ist.</li><li>Schwierigkeiten treten auch regelmäßig durch in den XML-Stream eingestreute Fehlermeldungen aus Datenbanken oder Anwendungen auf.</li><li>Auch XML-valide Fehlermeldungen können das inkrementelle Harvesten stark stören und sollten vermieden werden.</li></ul>"
    },
    "manual": true,
    "validation": "",
    "example": "",
    "weight": 0
  },
  {
    "id": "M_9_3_1",
    "key": {
      "en": "M.9-3-1",
      "de": "M.9-3-1"
    },
    "title": {
      "en": "XML Schema Conformity (Identify)",
      "de": "XML-Schema-Konformität (Identify)"
    },
    "description": {
      "en": "",
      "de": ""
    },
    "validation": "verb=Identify durch XML-Parser",
    "example": "",
    "weight": 1
  },
  {
    "id": "M_9_3_2",
    "key": {
      "en": "M.9-3-2",
      "de": "M.9-3-2"
    },
    "title": {
      "en": "XML Schema Conformity (ListIdentifiers)",
      "de": "XML-Schema-Konformität (ListIdentifiers)"
    },
    "description": {
      "en": "",
      "de": ""
    },
    "validation": "verb=ListIdentifiers durch XML-Parser",
    "example": "",
    "weight": 1
  },
  {
    "id": "M_9_3_3",
    "key": {
      "en": "M.9-3-3",
      "de": "M.9-3-3"
    },
    "title": {
      "en": "XML Schema Conformity (GetRecord with valid record ID)",
      "de": "XML-Schema-Konformität (GetRecord mit valider Record-ID)"
    },
    "description": {
      "en": "",
      "de": ""
    },
    "validation": "verb=GetRecord&identifier=[valid record-id] durch XML-Parser",
    "example": "",
    "weight": 1
  },
  {
    "id": "M_9_3_4",
    "key": {
      "en": "M.9-3-4",
      "de": "M.9-3-4"
    },
    "title": {
      "en": "XML Schema Conformity (GetRecord with invalid record ID)",
      "de": "XML-Schema-Konformität (GetRecord mit invalider Record-ID)"
    },
    "description": {
      "en": "",
      "de": ""
    },
    "validation": "verb=GetRecord&identifier=[invalid record-id] durch XML-Parser",
    "example": "",
    "weight": 1
  },
  {
    "id": "M_9_4",
    "key": {
      "en": "M.9-4",
      "de": "M.9-4"
    },
    "title": {
      "en": "Incremental Harvesting",
      "de": "Inkrementelles Harvesting"
    },
    "description": {
      "en": "<p>The OAI interface supports incremental harvesting correctly.</p><ul><li>Pre-condition for this is that every record contains the time of creation or last update of the metadata in the datestamp element (including the correct time zone) and not, e.g. the date of publication of the described document. Datestamps with fluid time zones (i.e. with no time zone assigned) are to be avoided. The time zone should be added to the date and time in a uniform structure (Berlin normal time should be given as “CET” or “+0100” or “+0100 CET” or “A”), and mixed forms are to be avoided.</li><li>This allows service providers to regularly update their data without having to harvest all metadata records. For this, the data provider must support the parameters <i>from</i> and <i>until</i> for the OAI requests <i>ListRecords</i> and <i>ListIdentifiers</i> and deliver the correct subsets of the data accurate to at least the day (YYYY-MM-DD).</li></ul>",
      "de": "<p>Die OAI-Schnittstelle unterstützt das inkrementelle Harvesting in korrekter Form.</p><ul><li>Voraussetzung dafür ist, dass im Datestamp-Element (inkl. korrekter Timezone-Angaben) im Header-Abschnitt jedes Datensatzes der Zeitpunkt der Erstellung bzw. der letzten Aktualisierung der Metadaten angegeben wird – und nicht beispielsweise das Publikationsdatum des dazu gehörigen Dokuments. Datestamps mit fließenden Zeitzonen (das sind solche, in denen keine Zeitzone angegeben ist) sollten vermieden werden. Außerdem ist es wünschenswert, wenn eine einheitliche Form von Zeitzonen-Angaben erfolgt, also für die Normalzeit in Göttingen beispielsweise entweder „CET“ oder „+0100“ oder „+0100 CET“ oder „A“ an die Datums-Uhrzeit-Angabe anhängen. Mischformen sollten vermieden werden.</li><li>Dadurch können Service Provider regelmäßig den Datenbestand abgleichen, ohne jeweils alle Metadatensätze anzufordern. Dazu muss der Data Provider für die OAI-Anfragen <i>ListRecords</i> und <i>ListIdentifiers</i> die Parameter <i>from</i> und <i>until</i> unterstützen und dabei jeweils die korrekten Teilmengen des Datenbestandes liefern, und zwar zumindest mit einer taggenauen Granularität (YYYY-MM-DD).</li></ul>"
    },
    "validation": "verb=ListRecords&metadataPrefix=oai_dc\n\nPrüfen, ob jeder Record einen Datestamp hat.",
    "example": "<ListRecords>\n    <record>\n        <header>\n            <datestamp>2016-04-28<\/datestamp>",
    "weight": 2
  },
  {
    "id": "M_9_5",
    "key": {
      "en": "M.9-5",
      "de": "M.9-5"
    },
    "title": {
      "en": "Consistent Sets",
      "de": "Konsistente Sets"
    },
    "description": {
      "en": "<p>The OAI interface uses set information in a consistent form.</p><ul><li>This includes especially that all sets with records assigned to them are delivered with the <i>ListSets</i> request, and that all records replying to <i>List Records</i> and <i>ListIdentifiers</i> requests qualified by the set parameter belong to the respective data set according to their header information.</li></ul>",
      "de": "<p>Die OAI-Schnittstelle verwendet Set-Informationen in konsistenter Form.</p><ul><li>Dazu zählt insbesondere, dass alle Sets, denen Datensätze zugeordnet sind, auch in der Antwort auf die Anfrage <i>ListSets</i> geliefert werden, und dass alle Datensätze, die auf eine mit dem Parameter set qualifizierte Anfrage der Typen <i>ListRecords</i> bzw. <i>ListIdentifiers</i> geliefert werden, gemäß ihren Header-Informationen zu dem betreffenden Set gehören.</li></ul>"
    },
    "manual": true,
    "validation": "",
    "example": "",
    "weight": 0
  },
  {
    "id": "M_9_6",
    "key": {
      "en": "M.9-6",
      "de": "M.9-6"
    },
    "title": {
      "en": "Identify Elements",
      "de": "Identify-Elemente"
    },
    "description": {
      "en": "<p>The reply to the Identify OAI request offers extensive information on the service.</p><ul><li>This includes especially a service operator’s valid email address in the element <i>adminEmail</i> and a short description of the service in English in the element <i>description</i>.</li></ul>",
      "de": "<p>Die Antwort auf die OAI-Anfrage Identify liefert umfassende Angaben zum Dienst.</p><ul><li>Dazu zählen insbesondere eine gültige E-Mail-Adresse des Dienstebetreibenden (Element <i>adminEmail</i>) und eine kurze Beschreibung des Dienstes (Element <i>description</i>) in englischer Sprache.</li></ul>"
    },
    "validation": "verb=Identify\n\nPrüfen, ob das Element adminMail vorhanden und mit einer syntaktisch korrekten E-Mail-Adresse belegt ist.\nPrüfen, ob das Element description vorhanden und mit mindestens einem alphanumerischen Zeichen (\\w) gefüllt ist.",
    "example": "<Identify>\n    <adminEmail>repositorien@bsz-bw.de<\/adminEmail>\n    <description>\n        <eprints xmlns=\"http:\/\/www.openarchives.org\/OAI\/1.1\/eprints\" xsi:schemaLocation=\"http:\/\/www.openarchives.org\/OAI\/1.1\/eprints http:\/\/www.openarchives.org\/OAI\/1.1\/eprints.xsd\">\n            <content>\n                <text>1. This is an institutional or departmental repository. 2. The repository holds all types of materials. 3. Deposited items may include: (a) working drafts, (b) submitted versions (as sent to journals for peer-review), (c) accepted versions (author's final peer-reviewed drafts), (d) published versions (publisher-created files).<\/text>\n            <\/content>\n        <\/eprints>\n    <\/description>",
    "weight": 0
  },
  {
    "id": "E_9_1",
    "key": {
      "en": "R.9-1",
      "de": "E.9-1"
    },
    "title": {
      "en": "Regular Interface Check",
      "de": "Regelmäßige Schnittstellenprüfung"
    },
    "description": {
      "en": "<p>Operators check the OAI interface at regular intervals with manual tests and validate it with automated tools.</p><ul><li>This ensures early identification of internal problems involving the OAI interface.</li></ul>",
      "de": "<p>Die OAI-Schnittstelle wird durch die Betreibenden in regelmäßigen Abständen überprüft (durch manuelle Tests) und maschinell validiert (durch automatische Werkzeuge).</p><ul><li>Damit wird gewährleistet, dass interne Probleme der OAI-Schnittstelle nicht unentdeckt bleiben.</li></ul>"
    },
    "manual": true,
    "validation": "keine",
    "example": "",
    "weight": 0
  },
  {
    "id": "E_9_2",
    "key": {
      "en": "R.9-2",
      "de": "E.9-2"
    },
    "title": {
      "en": "Communication of Changes",
      "de": "Kommunikation von Änderungen"
    },
    "description": {
      "en": "<p>When making considerable changes to the OAI interface, information is given to the registries where the OAI interface or the service is registered.</p><ul><li>This allows service providers to react adequately to changes. Relevant alterations in the sense of this recommendation are version changes, a change to the base URL, or software migrations for the service.</li></ul>",
      "de": "<p>Bei gravierenden Änderungen an der OAI-Schnittstelle werden entsprechende Informationen dazu an die Instanzen (Verzeichnisse) weitergegeben, bei denen die OAI-Schnittstelle bzw. der Dienst registriert sind.</p><ul><li>Dadurch wird es für Service Provider möglich, auf Veränderungen adäquat zu reagieren. Zu relevanten Änderungen im Sinne dieser Empfehlung gehören Versionsumstellungen, die Änderung der Basis-URL und ein Wechsel der Software, mit der der Dienst betrieben wird.</li></ul>"
    },
    "manual": true,
    "validation": "keine",
    "example": "",
    "weight": 0
  },
  {
    "id": "E_9_3",
    "key": {
      "en": "R.9-3",
      "de": "E.9-3"
    },
    "title": {
      "en": "About Element",
      "de": "About-Element"
    },
    "description": {
      "en": "<p>The element <i>provenance</i> is used in the About container for the individual metadata records that are delivered with <i>ListRecords</i> and <i>GetRecord</i> requests.</p>",
      "de": "<p>Für die einzelnen Metadatensätze, die auf die OAI-Anfragen <i>ListRecords</i> und <i>GetRecord</i> geliefert werden, kann das Element <i>provenance</i> im <i>about</i>-Container verwendet werden.</p>"
    },
    "validation": "verb=ListRecords&metadataPrefix=oai_dc\nPrüfe, ob der Record zusätzlich zu den Knoten 'header' und 'metadata' den Knoten 'about'  enthält und darin das Element 'provenance' enthalten ist.",
    "example": "<about>\n<provenance xmlns=\"http:\/\/www.openarchives.org\/OAI\/2.0\/provenance\"\n   xmlns:xsi=\"http:\/\/www.w3.org\/2001\/XMLSchema-instance\"\n   xsi:schemaLocation=\"http:\/\/www.openarchives.org\/OAI\/2.0\/provenance\n\n[http:\/\/www.openarchives.org\/OAI\/2.0\/provenance.xsd]\">\n<originDescription harvestDate=\"2002-02-02T14:10:02Z\" altered=\"true\">\n   <baseURL>[http:\/\/the.oa.org]<\/baseURL>\n   <identifier>oai:r2.org:klik001<\/identifier>\n   <datestamp>2002-01-01<\/datestamp>\n\n<metadataNamespace>[http:\/\/www.openarchives.org\/OAI\/2.0\/oai_dc\/]<\/metadataNamespace>\n   <originDescription harvestDate=\"2002-01-01T11:10:01Z\" altered=\"false\">\n     <baseURL>[http:\/\/some.oa.org]<\/baseURL>\n     <identifier>oai:r2.org:klik001<\/identifier>\n     <datestamp>2001-01-01<\/datestamp>\n\n<metadataNamespace>[http:\/\/www.openarchives.org\/OAI\/2.0\/oai_dc\/]<\/metadataNamespace>\n   <\/originDescription>\n<\/originDescription>\n<\/provenance>\n<\/about>",
    "weight": 0
  },
  {
    "id": "E_9_4",
    "key": {
      "en": "R.9-4",
      "de": "E.9-4"
    },
    "title": {
      "en": "Correct Description",
      "de": "Englische Anbieterinformation"
    },
    "description": {
      "en": "<p>The descriptive information in the OAI responses is in English.</p><ul><li>This includes, e.g. the elements in the response to the <i>setName</i> or <i>ListSets</i> request.</li></ul>",
      "de": "<p>Die deskriptiven Informationen innerhalb der OAI-Antworten sind in englischer Sprache angegeben.</p><ul><li>Dazu zählen beispielsweise die Elemente in der Antwort auf die Anfrage <i>setName</i> oder <i>ListSets</i>.</li></ul>"
    },
    "manual": true,
    "validation": "",
    "example": "",
    "weight": 0
  },
  {
    "id": "M_10_1",
    "key": {
      "en": "M.10-1",
      "de": "M.10-1"
    },
    "title": {
      "en": "Open Access Document Set",
      "de": "Set für Open-Access-Dokumente"
    },
    "description": {
      "en": "<p>A <i>setSpec</i> set exists that states <code>open_access</code> and contains all metadata records of Open Access documents, i.e. the full text is freely available worldwide via a hyperlink.</p><ul><li>Services that offer only Open Access publications must also meet this requirement. In this case the set contains all metadata records.</li></ul>",
      "de": "<p>Es existiert ein Set mit der Bezeichnung (<i>setSpec</i>) <code>open_access</code>. Zu diesem Set gehören alle Metadatensätze, die sich auf Open-Access-Dokumente beziehen, d.h. bei diesen steht weltweit ein zugehöriger und verlinkter Volltext frei zur Verfügung.</p><ul><li>Diese Anforderung gilt auch für Dienste, bei denen grundsätzlich alle Dokumente im Sinne von Open Access veröffentlicht werden. In diesem Fall würden alle Metadatensätze in dieses Set fallen.</li></ul>"
    },
    "validation": "verb=ListSets\n\nPrüfen, ob das Set \"open_access\" vorhanden ist.",
    "example": "<ListSets>\n    <set>\n        <setSpec>open_access<\/setSpec>",
    "weight": 3
  },
  {
    "id": "M_10_2",
    "key": {
      "en": "M.10-2",
      "de": "M.10-2"
    },
    "title": {
      "en": "Sets for disciplinary grouping",
      "de": "Sets für DDC-Sachgruppen"
    },
    "description": {
      "en": "<p>There is a set structure in accordance with Table 1 in the DINI certificate, and all metadata records–like the documents–are assigned a <i>setSpec</i> according to the table used.</p><ul><li>It is possible to assign each record to more than one DDC subject group.</li></ul>",
      "de": "<p>Es existiert eine Set-Struktur gemäß Tabelle 1 im Zertifikatstext, in die alle Metadatensätze gemäß der fachlichen Zuordnung der dazugehörigen Dokumente eingeordnet sind.</p><ul><li>Eine Zuordnung zu mehreren DDC-Sachgruppen ist möglich.</li></ul>"
    },
    "validation": "verb=ListSets\n\nPrüfen, ob mindestens ein Set vorhanden ist",
    "example": "<ListSets>\n    <set>\n        <setSpec>ddc:500<\/setSpec>",
    "weight": 3
  },
  {
    "id": "M_10_3",
    "key": {
      "en": "M.10-3",
      "de": "M.10-3"
    },
    "title": {
      "en": "Document and Publication Type Set",
      "de": "Sets für Dokument- und Publikationstypen"
    },
    "description": {
      "en": "<p>There is a structure in accordance with Table 2 in the DINI certificate, and all metadata records are assigned a <i>setSpec</i> according to the document and publication types.</p><ul><li>As stated in the DINI Recommendation <i>Gemeinsames Vokabular für Publikations- und Dokumenttypen</i>, assigning a document to more than one document or publication type is recommended.</li></ul>",
      "de": "<p>Es existiert eine Set-Struktur gemäß Tabelle 2 im Zertifikatstext, in die alle Metadatensätze gemäß der Zuordnung zu Dokument- und Publikationstypen der dazugehörigen Dokumente eingeordnet sind.</p><ul><li>Gemäß den Erläuterungen, die in den DINI-Empfehlungen Gemeinsames Vokabular für Publikations- und Dokumenttypen enthalten sind, ist die Zuordnung von Dokumenten zu mehreren Publikations- und Dokumenttypen erlaubt und sogar empfohlen.</li></ul>"
    },
    "validation": "verb=ListSets\n\nPrüfen, ob mindestens ein Set vorhanden ist",
    "example": "<ListSets>\n     <set>\n         <setSpec>doc-type:article<\/setSpec>",
    "weight": 3
  },
  {
    "id": "E_10_1",
    "key": {
      "en": "R.10-1",
      "de": "E.10-1"
    },
    "title": {
      "en": "Publication Status Set",
      "de": "Publication Status Set"
    },
    "description": {
      "en": "<p>There is a set structure in accordance with Table 3 in the DINI certificate, and all metadata records are assigned a <i>setSpec</i> according to the documents’ status in the publication process.</p>",
      "de": "<p>Es existiert eine Set-Struktur gemäß Tabelle 3 im Zertifikatstext, in die alle Metadatensätze gemäß dem jeweiligen Status im Publikationsprozess der zugehörigen Dokumente eingeordnet sind.</p>"
    },
    "validation": "verb=ListSets\n\nPrüfen, ob mindestens ein Set vorhanden ist",
    "example": "<ListSets>\n    <set>\n        <setSpec>status-type:submittedVersion<\/setSpec>",
    "weight": 0
  },
  {
    "id": "M_10_4",
    "key": {
      "en": "M.10-4",
      "de": "M.10-4"
    },
    "title": {
      "en": "Deleting Strategy",
      "de": "Deleting Strategy"
    },
    "description": {
      "en": "<p>One of the values <code>persistent</code> or <code>transient</code> is selected as the deleting strategy for the data provider.</p><ul><li>The OAI-PMH permits the options <code>no</code>, <code>transient</code> and <code>persistent</code>.</li><li>If <code>no</code> is selected, no information on deleted documents is transmitted, which can lead to inconsistent data on the service provider’s side.</li><li>If the option <code>transient</code> is used for deleted documents, the corresponding metadata records have to be available for at least one month after deletion indicating that the document has been deleted.</li><li>If the option <code>persistent</code> is used for deleted documents, the metadata remain unchanged, even if the objects no longer exist.</li></ul>",
      "de": "<p>Als Deleting Strategy für den Data Provider ist einer der Werte <code>persistent</code> oder <code>transient</code> gewählt.</p><ul><li>OAI-PMH erlaubt die Optionen <code>no</code>, <code>transient</code> oder <code>persistent</code>.</li><li>Wenn <code>no</code> angegeben ist, werden keine Informationen zu gelöschten Datensätzen übermittelt, was zu inkonsistenten Daten aufseiten von Service Providern führen kann.</li><li>Wenn die Option <code>transient</code> verwendet wird, müssen für gelöschte Dokumente noch mindestens einen Monat nach dem Löschdatum Records abrufbar sein, die die Löschung anzeigen.</li><li>Wenn die Option <code>persistent</code> verwendet wird, bleiben die Metadaten unverändert, auch wenn die Objekte nicht mehr existieren.</li></ul>"
    },
    "validation": "verb=Identify\nfield=deletedRecord\n",
    "example": "<Identify>\n    <deletedRecord>persistent<\/deletedRecord>",
    "weight": 2
  },
  {
    "id": "M_10_5",
    "key": {
      "en": "M.10-5",
      "de": "M.10-5"
    },
    "title": {
      "en": "Resumption Token",
      "de": "Resumption Token"
    },
    "description": {
      "en": "<p>Functionality of the resumption token is guaranteed.</p><ul><li>As problems with the handling of resumption tokens may occur (unanswered or incorrect follow-up requests), functionality should be tested explicitly.</li><li>If a data package is delivered incomplete, the resumption token usually delivered at the end of a package will be missing. To allow repetition of a data package, it must be possible to use resumption tokens repeatedly, leading to the same result.</li></ul>",
      "de": "<p>Die Funktionsfähigkeit des Einsatzes eines Resumption Tokens ist gewährleistet.</p><ul><li>In manchen Fällen kommt es zu Problemen beim Resumption Token Handling, d. h. Folge-Anfragen über den Resumption Token-Mechanismus werden nicht oder nicht korrekt beantwortet. Daher sollte die Funktionsfähigkeit explizit geprüft werden.</li><li>Wird ein Datenpaket unvollständig geliefert, so fehlt auch das am Ende des Datenpaketes übermittelte Resumption Token. Um eine Wiederholung des aktuellen Datenpakets zu ermöglichen, müssen Resumption Token wiederholt anwendbar sein und zum gleichen Ergebnis führen.</li></ul>"
    },
    "validation": "1. verb=ListRecords\n    field=resumptionToken\n\n2. verb=ListRecords&resumptionToken=TOKEN\n\n3. Abfrage 2 (verb=ListRecords&resumptionToken=TOKEN) nach 5 Minuten wiederholen, muss zum gleichen Ergebnis wie beim vorherigen Aufruf führen\n",
    "example": "<ListRecords>\n    <resumptionToken expirationDate=\"2020-04-04T12:28:37Z\" completeListSize=\"6427\" cursor=\"0\">158591691700000<\/resumptionToken>",
    "weight": 2
  },
  {
    "id": "E_10_2",
    "key": {
      "en": "R.10-2",
      "de": "E.10-2"
    },
    "title": {
      "en": "Harvest Batch Size",
      "de": "Harvest Batch Size"
    },
    "description": {
      "en": "<p>The harvest batch size (i.e. the maximum number of data sets in response to a <i>ListRecords</i> OAI request) is no less than 100 and no more than 500.</p><ul><li>Smaller data packages increase the number of required OAI requests, in turn increasing communication duration and the risk of errors. Larger packages carry the risk of transmission errors.</li></ul>",
      "de": "<p>Die Harvest Batch Size, also die maximale Anzahl der ausgelieferten Datensätze auf eine OAI-Anfrage ListRecords beträgt mindestens 100 und höchstens 500.</p><ul><li>Kleinere Datenpakete führen zu mehr notwendigen OAI-Anfragen und erhöhen Laufzeiten und Fehleranfälligkeit der Kommunikation. Bei größeren Datenpaketen erhöht sich die Gefahr von Übertragungsfehlern.</li></ul>"
    },
    "validation": "Requests analog zu den Abfragen 1 und 2 von M.10-5, Anzahl der <record>-Elemente zählen",
    "example": "<ListRecords>\n    <record>",
    "weight": 0
  },
  {
    "id": "E_10_3",
    "key": {
      "en": "R.10-3",
      "de": "E.10-3"
    },
    "title": {
      "en": "Resumption Token’s Life Span",
      "de": "Lebensdauer der Resumption Token"
    },
    "description": {
      "en": "<p>The resumption token’s life span is at least 24 hours.</p><ul><li>The attribute <i>expirationDate</i> describes the time until which the data provider guarantees the continuation of incomplete replies. If this time span is too short, it can cause the cancellation of the entire harvesting process as it expires before the previous reply has been delivered completely.</li><li>The <i>expirationDate</i> is to be provided as defined in M.9-4.</li></ul>",
      "de": "<p>Die Lebensdauer von Resumption Tokens beträgt mindestens 24 Stunden.</p><ul><li>Mit der Lebensdauer, die im Attribut <i>expirationDate</i> angegeben wird, ist der Zeitpunkt gemeint, bis zu dem der Data Provider die Fortsetzung einer unvollständigen Datenlieferung garantiert. Ist diese Zeitspanne zu kurz ausgelegt, kann dies unter Umständen zum Abbruch des gesamten Harvesting-Vorgangs führen, weil sie beendet ist, bevor die Daten der vorhergehenden Lieferung vollständig übertragen wurden.</li><li>Das <i>expirationDate</i> ist gemäß M.9-4 anzugeben.</li></ul>"
    },
    "validation": "Der Zeitstempel im Attribut \"expirationDate\" des Elements \"resumptionToken\" liegt mindestens 86.400 Sekunden (= 24 Stunden) hinter dem im Element \"responseDate\"",
    "example": "<responseDate>2020-04-03T12:28:36Z<\/responseDate>\n\n<ListRecords>\n    <resumptionToken expirationDate=\"2020-04-04T12:28:37Z\" completeListSize=\"6427\" cursor=\"0\">158591691700000<\/resumptionToken>",
    "weight": 0
  },
  {
    "id": "E_10_4",
    "key": {
      "en": "R.10-4",
      "de": "E.10-4"
    },
    "title": {
      "en": "The Attribute completeListSize",
      "de": "Das Attribut completeListSize"
    },
    "description": {
      "en": "<p>The attribute <i>completeListSize</i> is used.</p><ul><li> This describes the number of datasets in the result list which includes important information for the steering and controlling of the entire harvesting process. According to the OAI protocol, however, this is optional.</li></ul>",
      "de": "<p>Das Attribut completeListSize wird verwendet.</p><ul><li>Darin kann die Größe der gesamten Ergebnismenge angegeben werden, die für die Steuerung und Überprüfung des gesamten Harvesting-Vorgangs eine wichtige Information darstellt, laut Protokollspezifikation allerdings optional ist.</li></ul>"
    },
    "validation": "Prüfen ob Attribut completeListSize vorhanden ist.",
    "example": "<ListRecords>\n    <resumptionToken expirationDate=\"2020-04-04T12:28:37Z\" completeListSize=\"6427\" cursor=\"0\">158591691700000<\/resumptionToken>",
    "weight": 1
  },
  {
    "id": "M_11_1",
    "key": {
      "en": "M.11-1",
      "de": "M.11-1"
    },
    "title": {
      "en": "Dublin Core",
      "de": "Dublin Core"
    },
    "description": {
      "en": "<p>The Dublin Core formatted metadata sets (oai_dc) contain at least the elements <i>creator</i>, <i>title</i>, <i>date</i>, <i>type</i> and <i>identifier</i>, including their respective contents.</p><ul><li>The elements are necessary for a minimal description of electronic academic documents.</li><li> This requirement only applies when the elements make sense within the set’s context.</li></ul>",
      "de": "<p>In den im Format Dublin Core (oai_dc) ausgelieferten Datensätzen werden zumindest die Elemente <i>creator</i>, <i>title</i>, <i>date</i>, <i>type</i> und <i>identifier</i> mit Inhalt ausgeliefert.</p><ul><li>Diese Elemente sind für eine minimale Beschreibung wissenschaftlicher elektronischer Dokumente erforderlich.</li><li>Diese Verpflichtung gilt nur, wenn das Element im Satzkontext sinnvoll ist.</li></ul>"
    },
    "manual": true,
    "validation": "",
    "example": "",
    "weight": 0
  },
  {
    "id": "M_11_1_1",
    "key": {
      "en": "M.11-1-1",
      "de": "M.11-1-1"
    },
    "title": {
      "en": "Use of dc:creator Field",
      "de": "Verwendung des dc:creator-Feldes"
    },
    "description": {
      "en": "<p>The Dublin Core formatted metadata sets (oai_dc) contain at least the element <i>creator</i>, including its respective content.</p>",
      "de": "<p>In den im Format Dublin Core (oai_dc) ausgelieferten Datensätzen wird zumindest das Element <i>creator</i> mit Inhalt ausgeliefert.</p>"
    },
    "validation": "Prüfung ob dc:creator-Feld vorhanden ist und mit mind. einem Zeichen ausgeliefert wird.",
    "example": "<dc:creator>Dushay, Naomi<\/dc:creator>",
    "weight": 3
  },
  {
    "id": "M_11_1_2",
    "key": {
      "en": "M.11-1-2",
      "de": "M.11-1-2"
    },
    "title": {
      "en": "Use of dc:title Field",
      "de": "Verwendung des dc:title-Feldes"
    },
    "description": {
      "en": "<p>The Dublin Core formatted metadata sets (oai_dc) contain at least the element <i>title</i>, including its respective content.</p>",
      "de": "<p>In den im Format Dublin Core (oai_dc) ausgelieferten Datensätzen wird zumindest das Element <i>title</i> mit Inhalt ausgeliefert.</p>"
    },
    "validation": "Prüfung ob dc:title-Feld vorhanden ist und mit mind. einem Zeichen ausgeliefert wird.",
    "example": "<dc:title>Using Structural Metadata to Localize Experience of Digital Content<\/dc:title>",
    "weight": 4
  },
  {
    "id": "M_11_1_3",
    "key": {
      "en": "M.11-1-3",
      "de": "M.11-1-3"
    },
    "title": {
      "en": "Use of dc:date Field",
      "de": "Verwendung des dc:date-Feldes"
    },
    "description": {
      "en": "<p>The Dublin Core formatted metadata sets (oai_dc) contain at least the element <i>date</i>, including its respective content.</p>",
      "de": "<p>In den im Format Dublin Core (oai_dc) ausgelieferten Datensätzen wird zumindest das Element <i>date</i> mit Inhalt ausgeliefert.</p>"
    },
    "validation": "Prüfung ob dc:date-Feld vorhanden ist und mit mind. einem Zeichen ausgeliefert wird.",
    "example": "<dc:date>2001-12-14<\/dc:date>",
    "weight": 3
  },
  {
    "id": "M_11_1_4",
    "key": {
      "en": "M.11-1-4",
      "de": "M.11-1-4"
    },
    "title": {
      "en": "Use of dc:type Field",
      "de": "Verwendung des dc:type-Feldes"
    },
    "description": {
      "en": "<p>The Dublin Core formatted metadata sets (oai_dc) contain at least the element <i>type</i>, including its respective content.</p>",
      "de": "<p>In den im Format Dublin Core (oai_dc) ausgelieferten Datensätzen wird zumindest das Element <i>type</i> mit Inhalt ausgeliefert.</p>"
    },
    "validation": "Prüfung ob dc:type-Feld vorhanden ist und mit mind. einem Zeichen ausgeliefert wird.",
    "example": "<dc:type>e-print<\/dc:type>",
    "weight": 3
  },
  {
    "id": "M_11_1_5",
    "key": {
      "en": "M.11-1-5",
      "de": "M.11-1-5"
    },
    "title": {
      "en": "Use of dc:identifier Field",
      "de": "Verwendung des dc:identifier-Feldes"
    },
    "description": {
      "en": "<p>The Dublin Core formatted metadata sets (oai_dc) contain at least the element <i>identifier</i>, including its respective content.</p>",
      "de": "<p>In den im Format Dublin Core (oai_dc) ausgelieferten Datensätzen wird zumindest das Element <i>identifier</i> mit Inhalt ausgeliefert.</p>"
    },
    "validation": "Prüfung ob dc:identifier-Feld vorhanden ist und mit mindestens einem Zeichen ausgeliefert wird.",
    "example": "<dc:identifier>http:\/\/arXiv.org\/abs\/cs\/0112017<\/dc:identifier>",
    "weight": 4
  },
  {
    "id": "M_11_2",
    "key": {
      "en": "M.11-2",
      "de": "M.11-2"
    },
    "title": {
      "en": "Atomic Structure of Dublin Core Elements",
      "de": "Granulare Verwendung der Dublin-Core-Elemente"
    },
    "description": {
      "en": "<p>In every used DC element, exactly one value is referenced.</p><ul><li>Every DC element can be used multiple times within a metadata set.</li><li>Every author’s name should be listed in a single <i>creator</i> element, every keyword in one single <i>subject</i> element, every URL in a single <i>identifier</i> element, etc.</li><li>This allows a clear separation of the individual elements and the correct indexing.</li></ul>",
      "de": "<p>In jedem verwendeten DC-Element wird immer nur genau ein Wert referenziert.</p><ul><li>Jedes DC-Element kann und darf innerhalb eines Metadatensatzes beliebig wiederholt werden.</li><li>Beispielsweise sollte jeder Autor*innen-Name in einem einzelnen <i>creator</i>-Element erscheinen, jedes Schlagwort in einem eigenen <i>subject</i>-Element, jede URL in einem eigenen <i>identifier</i>-Element usw.</li><li>Damit wird eine klare Trennung der Einzelbestandteile und die korrekte Indexierung ermöglicht.</li></ul>"
    },
    "manual": true,
    "validation": "",
    "example": "",
    "weight": 0
  },
  {
    "id": "M_11_3",
    "key": {
      "en": "M.11-3",
      "de": "M.11-3"
    },
    "title": {
      "en": "Operable Identifier",
      "de": "Operabler Identifier"
    },
    "description": {
      "en": "<p>Every record referring to full text contains at least one <i>identifier</i> element with an operable URL based on a <i>persistent identifier</i>.</p><ul><li>This operable URL may lead to a landing page or directly to the full text.</li><li>To transform a persistent identifier (e.g. URN or DOI) into a working URL, the resolving service’s base URL must precede it (see Criterion 5 – Information Security, Minimum Requirements M.5-7 and M.5-8).</li><li>Additional identifier elements may contain differing URLs for a document’s landing page or for alternative versions (e.g. in a different file format), or they may contain different identifiers (e.g. ISBN, ISSN, INSPIRE ID, arXiv Identifier). Identifiers of alternative versions may be added in the relation element.</li></ul>",
      "de": "<p>Für jeden Datensatz, der auf einen Volltext verweist, wird in mindestens einem <i>identifier</i>-Element eine operable URL auf der Basis eines <i>Persistent Identifier</i> angegeben.</p><ul><li>Diese operable URL kann auf eine Landing Page oder direkt auf den Volltext führen.</li><li>Damit ein Persistent Identifier (beispielsweise eine URN oder eine DOI) zu einer operablen  URL  wird, muss ihm die Basis-URL  eines entsprechenden Resolver-Dienstes vorangestellt werden (siehe Kriterium 5 – Informationssicherheit, Abschnitt 2.5, Mindestanforderungen M.5-7 und M.5-8).</li><li>Daneben können weitere identifier-Elemente URLs zu einer Landing Page, zu alternativen Versionen des Dokuments (beispielsweise in einem anderen Dateiformat) oder andere Identifikatoren (ISBN, DOI, ISSN, INSPIRE ID, arXiv identifier u. ä.) enthalten. Identifier zu alternativen Versionen können im Element relation ergänzt werden.</li></ul>"
    },
    "validation": "Prüfung ob http:\/\/ oder https:\/\/ einmalig vorhanden ist.",
    "example": "",
    "weight": 3
  },
  {
    "id": "M_11_4",
    "key": {
      "en": "M.11-4",
      "de": "M.11-4"
    },
    "title": {
      "en": "Data Structure in dc:creator",
      "de": "Namensformat in dc:creator"
    },
    "description": {
      "en": "<p>The <i>creator</i> element has the inner structure: last name, first name.</p><ul><li>The same is true for the <i>contributor</i> element when it contains a personal or institution’s name.</li></ul>",
      "de": "<p>Für das Element <i>creator</i> wird folgende Binnenstruktur verwendet: Nachname, Vorname.</p><ul><li>Dasselbe gilt für das Element <i>contributor</i>, sofern darin ein Personen- oder Institutionsname genannt wird.</li></ul>"
    },
    "manual": true,
    "validation": "",
    "example": "",
    "weight": 0,
    "note": "Auch Körperschaften können Creator sein; dann ist die Form Nachname, Vorname nicht anwendbar."
  },
  {
    "id": "M_11_5",
    "key": {
      "en": "M.11-5",
      "de": "M.11-5"
    },
    "title": {
      "en": "Document and Publication Types",
      "de": "Dokument- und Publikationstyp"
    },
    "description": {
      "en": "<p>Document or publication types according to the DINI Recommendations Common Vocabulary for Publication and Document Types (Gemeinsames Vokabular für Publikations- und Dokumenttypen) are assigned to all documents using the <i>type</i> element.</p><ul><li>The DINI Recommendation supports the listing of a value from the Dublin Core Type Vocabulary in a type element of its own.</li><li>For vocabulary, see the first column in Table 2, section 2.10.3 of the DINI certificate.</li></ul>",
      "de": "<p>Allen Dokumenten sind Dokument- bzw. Publikationstypen gemäß den Vorgaben aus den DINI-Empfehlungen Gemeinsames Vokabular für Publikations- und Dokumenttypen in je eigenen <i>type</i>-Elementen zugewiesen.</p><ul><li>Die genannte DINI-Empfehlung spricht sich dafür aus, immer auch zusätzlich einen Wert aus dem Dublin Core Type Vocabulary in einem eigenen type-Element anzugeben.</li><li>Für das zu verwendende Vokabular siehe die erste Spalte in Tabelle 2 im Abschnitt 2.10.3 des DINI-Zertifikats.</li></ul>"
    },
    "validation": "Prüfung ob Dokument- bzw. Publikationstyp gemäß dem Gemeinsamen Vokabular für Publikations- und Dokumenttypen mind. einmal vorhanden ist.",
    "example": "",
    "weight": 2
  },
  {
    "id": "M_11_6",
    "key": {
      "en": "M.11-6",
      "de": "M.11-6"
    },
    "title": {
      "en": "DNB Subject Group",
      "de": "DNB-Sachgruppe"
    },
    "description": {
      "en": "<p>Every record contains at least one DNB subject group in a <i>subject</i> element, and the document is listed in that group.</p><ul><li>For vocabulary, see the first column in Table 1, section 2.10.2 of the DINI certificate.</li></ul>",
      "de": "<p>Für jeden Datensatz wird in mindestens einem <i>subject</i>-Element eine DNB-Sachgruppe angegeben, in die das beschriebene Dokument eingeordnet ist.</p><ul><li>Für das zu verwendende Vokabular siehe die erste Spalte in Tabelle 1 im Abschnitt 2.10.2 des DINI-Zertifikats.</li></ul>"
    },
    "validation": "Prüfung ob \"ddc:\", gefolgt von drei Ziffern und ggf. einem Punkt und einer Ziffer, mind. einmal vorhanden ist.\nddc:\\d{3}\\.?\\d?",
    "example": "ddc:380\nddc:491.8",
    "weight": 2
  },
  {
    "id": "M_11_7",
    "key": {
      "en": "M.11-7",
      "de": "M.11-7"
    },
    "title": {
      "en": "Language Encoding",
      "de": "Sprachangabe"
    },
    "description": {
      "en": "<p>The <i>language</i> element’s content is listed according to <a href=\"https://en.wikipedia.org/wiki/List_of_ISO_639-3_codes\">ISO 639-3</a>.</p><ul><li>For German the code is <i>deu</i>, for English it is <i>eng</i>.</li></ul>",
      "de": "<p>Der Inhalt des Elements <i>language</i> wird gemäß <a href=\"https://de.wikipedia.org/wiki/Listen_der_ISO-639-3-Codes\">ISO 639-3</a> angegeben.</p><ul><li>Beispielsweise ist der Code für die Sprache Deutsch <i>deu</i>, für Englisch lautet er <i>eng</i>.</li></ul>"
    },
    "validation": "Prüfung ob Sprachangabe gemäß ISO 639-3 vorhanden ist.",
    "example": "",
    "weight": 2
  },
  {
    "id": "M_11_8",
    "key": {
      "en": "M.11-8",
      "de": "M.11-8"
    },
    "title": {
      "en": "Date Encoding",
      "de": "Datumsangabe"
    },
    "description": {
      "en": "<p>The <i>date</i> element’s content is listed according to ISO 8601.</p><ul><li>The corresponding format is YYYY-MM-DD.</li></ul>",
      "de": "<p>Der Inhalt des Elements <i>date</i> wird gemäß der ISO-Norm 8601 angegeben.</p><ul><li>Das entspricht der Form YYYY-MM-DD.</li></ul>"
    },
    "validation": "Prüfung ob Datumsangabe gemäß ISO 8601 einmal vorhanden ist.",
    "example": "",
    "weight": 2
  },
  {
    "id": "M_11_9",
    "key": {
      "en": "M.11-9",
      "de": "M.11-9"
    },
    "title": {
      "en": "Consistency of DataCite and Dublin Core",
      "de": "DataCite entspricht Dublin Core"
    },
    "description": {
      "en": "<p>In the case, the described document is also described with DataCite, as a minimum, the properties <i>identifier</i>, <i>creator</i>, <i>title</i>, <i>publisher</i>, <i>PublicationYear</i>, and <i>ResourceType</i> are given.</p><ul><li>These must be filled identical to the respective fields in Dublin Core.</li><li>According to the DataCite schema, the <i>identifier</i> field must contain a valid DOI.</li></ul>",
      "de": "<p>Wenn die Beschreibung auch mittels DataCite erfolgt, dann müssen wenigstens die Properties <i>identifier</i>, <i>creator</i>, <i>title</i>, <i>publisher</i>, <i>PublicationYear</i> und <i>ResourceType</i> angegeben werden.</p><ul><li>Diese müssen identisch zu den entsprechenden Feldern in DC gefüllt sein.</li><li>Das Feld <i>identifier</i> muss laut DataCite-Schema eine valide DOI enthalten.</li></ul>"
    },
    "validation": "Prüfung ob die Felder Identifier, Creator, Title, Publisher, PublicationYear und ResourceType mit Inhalt gefüllt sind dieser (für alle Felder außer Identifier) identisch ist mit den entsprechenden DCMI-Feldern.\nIm Feld DataCite:Identifier muss eine DOI stehen. Falls im Feld DC:identifier auch eine DOI steht, müssen diese Angaben identisch sein.",
    "example": "",
    "weight": 0
  },
  {
    "id": "E_11_1",
    "key": {
      "en": "R.11-1",
      "de": "E.11-1"
    },
    "title": {
      "en": "Order of Identifiers",
      "de": "Identifier-Reihenfolge"
    },
    "description": {
      "en": "<p>The <i>identifier</i> elements’ order in a metadata record mirrors their importance. The preferred value is given first.</p><ul><li>Many service providers read the position as a marker for the priority given to a URL. From the Open Access publication service operator’s perspective, the link to the landing page is usually the preferred one.</li><li>Formally, the order of elements is of no importance in Dublin Core, but adhering to the rule above has proven to be practicable to “recommend” the preferred URL to the service provider.</li></ul>",
      "de": "<p>Die Reihenfolge der <i>identifier</i>-Elemente innerhalb eines Metadatensatzes ist so gewählt, dass der bevorzugt zu verwendende an erster Stelle steht.</p><ul><li>Viele Service Provider nehmen die Position als Anhaltspunkt für die Priorität, mit denen die URLs verwendet werden sollen. Aus Sicht von Betreibenden von Open-Access-Publikationsdiensten ist in der Regel der Link zur Einstiegsseite des Dokuments bevorzugt.</li><li>In Dublin Core spielt die Reihenfolge der Elemente zwar formal keine Rolle, die Beachtung dieser Konvention hat sich aber als pragmatischer Weg erwiesen, Service Providern die bevorzugt zu verwendende URL zu empfehlen.</li></ul>"
    },
    "manual": true,
    "validation": "",
    "example": "",
    "weight": 0,
    "note": "Reihenfolge der Identifier ist sinnvoll"
  },
  {
    "id": "E_11_2",
    "key": {
      "en": "R.11-2",
      "de": "E.11-2"
    },
    "title": {
      "en": "Contributor Element",
      "de": "Contributor-Element"
    },
    "description": {
      "en": "<p>The <i>contributor</i> element is used and contains the name of a person or institution that was involved in the creation of the document described.</p><ul><li>This may be the referee of a dissertation or the editor of a collection.</li></ul>",
      "de": "<p>Das Element <i>contributor</i> wird verwendet und enthält (pro Vorkommen) den Namen einer an der Erstellung des beschriebenen Dokuments beteiligten Person oder Institution.</p><ul><li>Das kann beispielsweise die\/der Gutachter*in einer Dissertation oder die\/der Herausgeber*in eines Sammelbandes sein.</li></ul>"
    },
    "manual": true,
    "validation": "",
    "example": "",
    "weight": 0
  },
  {
    "id": "E_11_3",
    "key": {
      "en": "R.11-3",
      "de": "E.11-3"
    },
    "title": {
      "en": "Relation Element",
      "de": "Relation-Element"
    },
    "description": {
      "en": "<p>The <i>relation</i> element is used to name objects that are related to the document described.</p><ul><li>Relations may be hierarchical structures (<i>isPartOf</i>) or updates (<i>isVersionOf</i>).</li><li><i>Identifiers</i> for such related objects may also be provided in the <i>relation</i> field.</li></ul>",
      "de": "<p>Das Element <i>relation</i> wird für die Nennung von Objekten verwendet, die mit dem beschriebenen Dokument in einer Beziehung stehen.</p><ul><li>Derartige Beziehungen sind beispielsweise hierarchische Zugehörigkeit (<i>isPartOf</i>) oder Aktualisierungen (<i>isVersionOf</i>).</li><li><i>Identifier</i> zu derart verbundenen Objekten können ebenfalls im Feld </i>relation</i> angegeben werden.</li></ul>"
    },
    "manual": true,
    "validation": "",
    "example": "",
    "weight": 0
  },
  {
    "id": "E_11_4",
    "key": {
      "en": "R.11-4",
      "de": "E.11-4"
    },
    "title": {
      "en": "Subject Element",
      "de": "Subject-Element"
    },
    "description": {
      "en": "<p>The <i>subject</i> element is used for descriptions of a document’s content.</p><ul><li>In general, the content is described using keywords, or notations from classification schemas.</li></ul>",
      "de": "<p>Das Element <i>subject</i> wird für Angaben über das Thema des beschriebenen Dokuments verwendet.</p><ul><li>Üblicherweise wird das Thema durch Stichwörter, Schlagwörter oder Notationen aus Klassifikationssystemen beschrieben.</li></ul>"
    },
    "manual": true,
    "validation": "",
    "example": "",
    "weight": 0
  },
  {
    "id": "E_11_5",
    "key": {
      "en": "R.11-5",
      "de": "E.11-5"
    },
    "title": {
      "en": "Unique Date",
      "de": "Eindeutige Datumsangabe"
    },
    "description": {
      "en": "<p>The <i>date</i> element is used only once in a metadata record.</p><ul><li>The publication date is to be preferred over other dates (e.g. upload date or date of creation) as it has the greatest priority for end users.</li></ul>",
      "de": "<p>Das Element <i>date</i> wird pro Metadatensatz nur einmalig angegeben.</p><ul><li>Dabei ist das Publikationsdatum gegenüber anderen Daten – etwa dem Einstell- oder Erzeugungsdatum – zu bevorzugen, da es für die Endnutzer*innen die größte Bedeutung hat.</li></ul>"
    },
    "validation": "Prüfung ob pro Metadatensatz eine Date-Angabe vorhanden ist.",
    "example": "<dc:date>2001-12-14<\/dc:date>",
    "weight": 0
  },
  {
    "id": "E_11_6",
    "key": {
      "en": "R.11-6",
      "de": "E.11-6"
    },
    "title": {
      "en": "Grouping by Sources",
      "de": "Gruppierung nach Quellen"
    },
    "description": {
      "en": "<p>If an aggregating service makes multiple services’ metadata available, the aggregating service has to offer the option to harvest each service individually. This can be done by grouping <i>sets</i> or separate base URLs.</p><ul><li>The aggregator’s interface should allow listing and correlating of the included independent services and their resp. institutions.</li><li>Special emphasis is to be put on the aggregated data’s normalization, up-to-dateness and duplicate checks.</li></ul>",
      "de": "<p>Werden die Metadaten eines Dienstes von einem Aggregator-Dienst bereit gestellt, muss dieser die Möglichkeit bieten, die von ihm erfassten Dienste einzeln zu harvesten. Dies kann durch eine <i>Set</i>-Gruppierung oder separate Basis-URLs geschehen.</p><ul><li>Dabei sollte die Schnittstelle des Aggregators die Auflistung und Zuordnung der erfassten selbständigen Dienste und ihrer Institutionen ermöglichen.</li><li>Besonderes Gewicht ist auf die Punkte Normalisierung, Aktualität und Dublettenkontrolle der aggregierten Daten zu legen.</li></ul>"
    },
    "manual": true,
    "validation": "",
    "example": "",
    "weight": 0
  },
  {
    "id": "E_11_7",
    "key": {
      "en": "R.11-7",
      "de": "E.11-7"
    },
    "title": {
      "en": "Direct Linking of Full Text",
      "de": "Volltext-Link"
    },
    "description": {
      "en": "<p>A direct link to the full text is supplied in an <i>identifier</i> element.</p><ul><li>Use of a persistent identifier (incl. preceding resolver) is to be preferred (see M.11-3).</li><li>Other than a link to the landing page, this additional direct link to the full text allows it to be used for external add-on services (e.g. comprehensive full-text searches, text mining).</li></ul>",
      "de": "<p>In einem <i>identifier</i>-Element wird ein direkter Link zum Volltext geliefert.</p><ul><li>Für dieses Element ist die Verwendung eines Persistent Identifiers (mit vorangestelltem Resolver) vorzuziehen (siehe M.11-3).</li><li>Im Gegensatz zum Link zur Landing Page ermöglicht ein zusätzlicher direkter Link zum Volltext dessen Nutzung für darauf aufsetzende externe Zusatzdienste (beispielsweise übergreifende Volltextsuche, Text Mining).</li></ul>"
    },
    "manual": true,
    "validation": "",
    "example": "",
    "weight": 0
  },
  {
    "id": "E_11_8",
    "key": {
      "en": "R.11-8",
      "de": "E.11-8"
    },
    "title": {
      "en": "COAR Resource Type",
      "de": "COAR Resource Type"
    },
    "description": {
      "en": "<p>In addition to the document or publication type, an appropriate pair of values from the hierarchically structured COAR Resource Type Vocabulary is given in a <i>type</i> element.</p><ul><li>The COAR Resource Type Vocabulary facilitates international harmonization of document and publication types.</li><li>The type is defined through referencing of the concept URL and label in accordance with <a href=\"https:\/\/vocabularies.coar-repositories.org/documentation/resource_types/\">vocabularies.coar-repositories.org/documentation/resource_types</a>.</li></ul>",
      "de": "<p>Die Zuweisung des Dokument- bzw. Publikationstyps wird zusätzlich durch Angabe eines geeigneten Wertepaars in eigenen <i>type</i>-Elementen aus dem hierarchisch strukturierten COAR Resource Type Vokabular ergänzt.</p><ul><li>Das COAR Resource Type Vokabular dient der internationalen Harmonisierung von Dokumenten- und Publikationstypen.</li><li>Die Angabe des Typs erfolgt durch Referenzierung von Concept-URL und Label gemäß <a href=\"https:\/\/vocabularies.coar-repositories.org/documentation/resource_types/\">vocabularies.coar-repositories.org/documentation/resource_types</a>.</li></ul>"
    },
    "validation": "Prüfe auf URL-Prefix \"https:\/\/vocabularies.coar-repositories.org\/resource_types\/\"",
    "example": "",
    "weight": 0
  },
  {
    "id": "E_11_9",
    "key": {
      "en": "R.11-9",
      "de": "E.11-9"
    },
    "title": {
      "en": "ORCID iD in Creator and Contributor",
      "de": "ORCID iD in Creator und Contributor"
    },
    "description": {
      "en": "<p>For the <i>creator</i> element, author identifiers (e.g. ORCID ID) will be integrated in the following inner structure: <i>Carberry, Josiah; https:\/\/orcid.org\/0000-0002-1825-0097; https:\/\/myAuthorIdentifier\/xyz.</i></p><ul><li>This recommendation applies to the <i>contributor</i> element as well if a person’s name is listed in it and if one or more author identifiers are available.</li></ul>",
      "de": "<p>Für das Element <i>creator</i> werden Autoren-Identifier (beispielsweise ORCID) in folgende Binnenstruktur integriert: <i>Carberry, Josiah; https:\/\/orcid.org\/0000-0002-1825-0097; https:\/\/myAuthorIdentifier\/xyz.</i></p><ul><li>Analog gilt diese Empfehlung auch für das Element <i>contributor</i>, sofern darin ein Personenname genannt wird und ein oder mehrere Autoren-Identifier für Autor*innen vorliegen.</li></ul>"
    },
    "validation": "Prüfung ob https:\/\/orcid.org\/\\d{4}-\\d{4}-\\d{4}-\\d{3}[0-9X] vorhanden",
    "example": "",
    "weight": 0
  },
  {
    "id": "E_11_10",
    "key": {
      "en": "R.11-10",
      "de": "E.11-10"
    },
    "title": {
      "en": "Rights Element",
      "de": "Rights-Element"
    },
    "description": {
      "en": "<p>The <i>rights</i> element is used to describe the legal (copyright) situation of an object. This includes the Open Access status as well as the license conditions.</p><p>The requirements laid down in Criterion 4 of the DINI certificate – Legal Aspects, M.4-10 must be followed when it comes to license conditions, i.e. use the license URL as the operable URL.</p><p>The Open Access status is to be labelled in line with the COAR Access Rights vocabulary, (see <a href=\"https:\/\/vocabularies.coar-repositories.org/access_rights/\">vocabularies.coar-repositories.org/access_rights</a>).</p>",
      "de": "<p>Das Element <i>rights</i> wird verwendet, um die Rechtesituation des Objektes zu beschreiben. Dies betrifft sowohl den Open-Access-Status als auch die Lizenzbedingungen.</p><p>Für die Lizenzbedingungen sind die Vorgaben aus Kriterium 4 des Zertifikats – Rechtliche Aspekte, M.4-10 umzusetzen (Lizenz-URL als operable URL).</p><p>Der Open-Access-Status wird gemäß des COAR-Vokabulars „Access Rights“ gekennzeichnet, (siehe <a href=\"https:\/\/vocabularies.coar-repositories.org/access_rights/\">vocabularies.coar-repositories.org/access_rights</a>).</p>"
    },
    "validation": "Prüfung ob Rights-Element vorhanden und mit Inhalt gefüllt ist.",
    "example": "<dc:rights>https:\/\/creativecommons.org\/licenses\/by\/3.0\/de\/<\/dc:rights>",
    "weight": 0
  },
  {
    "id": "E_11_11",
    "key": {
      "en": "R.11-11",
      "de": "E.11-11"
    },
    "title": {
      "en": "Document Description with DataCite Vocabulary",
      "de": "Dokumentenbeschreibung mittels DataCite-Vokabular"
    },
    "description": {
      "en": "<p>In addition to a description in <i>Dublin Core Simple</i> formatted metadata sets, the object is described by metadata that adhere to the <i>DataCite</i> metadata schema in at least version 4.2 (<a href=\"https:\/\/schema.datacite.org\">schema.datacite.org</a>).</p><ul><li>The data format is usually named <i>oai_datacite</i> in OAI.</li></ul>",
      "de": "<p>Ergänzend zu einer Beschreibung mittels <i>Dublin Core Simple</i> wird das Objekt auch durch Metadaten entsprechend <i>DataCite</i> in der jeweils aktuellen Schema-Verion, wenigstens in der Schema-Version 4.2 beschrieben (<a href=\"https:\/\/schema.datacite.org\">schema.datacite.org</a>).</p><ul><li>Benennung des Datenformats in OAI ist üblicherweise <i>oai_datacite</i>.</li></ul>"
    },
    "validation": "Prüfung ob DataCite-Schema angegeben wird beim Aufruf von https:\/\/[OAI-BaseURL]\/oai?verb=ListMetadataFormats",
    "example": "<metadataFormat>\n <metadataPrefix>oai_datacite<\/metadataPrefix>\n    <schema>http:\/\/schema.datacite.org\/meta\/kernel-4.2\/metadata.xsd<\/schema>\n    <metadataNamespace>http:\/\/datacite.org\/schema\/kernel-4<\/metadataNamespace>\n<\/metadataFormat>",
    "weight": 0
  }
]
